{
  "workbench.colorCustomizations": {
    "activityBarBadge.background": "#FCEE21",
    "activityBar.activeBorder": "#C6FF00",
    "list.activeSelectionForeground": "#C6FF00",
    "list.inactiveSelectionForeground": "#C6FF00",
    "list.highlightForeground": "#C6FF00",
    "scrollbarSlider.activeBackground": "#C6FF0050",
    "editorSuggestWidget.highlightForeground": "#C6FF00",
    "textLink.foreground": "#C6FF00",
    "progressBar.background": "#C6FF00",
    "pickerGroup.foreground": "#C6FF00",
    "tab.activeBorder": "#C6FF00",
    "notificationLink.foreground": "#C6FF00",
    "editorWidget.resizeBorder": "#C6FF00",
    "editorWidget.border": "#C6FF00",
    "settings.modifiedItemIndicator": "#C6FF00",
    "settings.headerForeground": "#C6FF00",
    "panelTitle.activeBorder": "#C6FF00",
    "breadcrumb.activeSelectionForeground": "#C6FF00",
    "menu.selectionForeground": "#C6FF00",
    "menubar.selectionForeground": "#C6FF00",
    "editor.findMatchBorder": "#C6FF00",
    "selection.background": "#C6FF0040",
    "statusBar.background": "#00505a",
    "statusBar.foreground": "#F9F871",
    "statusBarItem.remoteBackground": "#C6FF0040",
    "statusBar.noFolderBackground": "#00505a",
    "statusBar.noFolderForeground": "#ffffff",
    "statusBar.debuggingBackground": "#e74c3c",
    "statusBar.debuggingForeground": "#ffffff",
    "activityBar.background": "#00505a",
    "activityBar.foreground": "#F9F871"
  },
  "code-runner.executorMap": {
    "javascript": "node",
    "java": "cd $dir && javac $fileName && java $fileNameWithoutExt",
    "c": "cd $dir && gcc $fileName -o $fileNameWithoutExt && $dir$fileNameWithoutExt",
    "cpp": "cd $dir && g++ $fileName -o $fileNameWithoutExt && $dir$fileNameWithoutExt",
    "objective-c": "cd $dir && gcc -framework Cocoa $fileName -o $fileNameWithoutExt && $dir$fileNameWithoutExt",
    "php": "php",
    "python": "python -u",
    "perl": "perl",
    "perl6": "perl6",
    "ruby": "ruby",
    "go": "go run",
    "lua": "lua",
    "groovy": "groovy",
    "powershell": "powershell -ExecutionPolicy ByPass -File",
    "bat": "cmd /c",
    "shellscript": "bash",
    "fsharp": "fsi",
    "csharp": "scriptcs",
    "vbscript": "cscript //Nologo",
    "typescript": "ts-node",
    "coffeescript": "coffee",
    "scala": "scala",
    "swift": "swift",
    "julia": "julia",
    "crystal": "crystal",
    "ocaml": "ocaml",
    "r": "Rscript",
    "applescript": "osascript",
    "clojure": "lein exec",
    "haxe": "haxe --cwd $dirWithoutTrailingSlash --run $fileNameWithoutExt",
    "rust": "cd $dir && rustc $fileName && $dir$fileNameWithoutExt",
    "racket": "racket",
    "scheme": "csi -script",
    "ahk": "autohotkey",
    "autoit": "autoit3",
    "dart": "dart",
    "pascal": "cd $dir && fpc $fileName && $dir$fileNameWithoutExt",
    "d": "cd $dir && dmd $fileName && $dir$fileNameWithoutExt",
    "haskell": "runhaskell",
    "nim": "nim compile --verbosity:0 --hints:off --run",
    "lisp": "sbcl --script",
    "kit": "kitc --run",
    "v": "v run",
    "sass": "sass --style expanded",
    "scss": "scss --style expanded"
  },
  "extensions.ignoreRecommendations": true,
  "sync.autoDownload": true,
  "sync.autoUpload": true,
  "sync.gist": "3335b4489f1b15688efc0c201ab67587",
  "cSpell.language": "de, en",
  "cSpell.userWords": [
    "Abberufungsverfahren",
    "Acet",
    "Acetylen",
    "Acetylenflasche",
    "Acetylenflaschen",
    "Acetylenverordnung",
    "Acro",
    "adipiscing",
    "amet",
    "Anziehschleife",
    "Arial",
    "astype",
    "Ätzwirkung",
    "Aufgabe",
    "aufgeprotzte",
    "Aufwirbelung",
    "ausgeloest",
    "automare",
    "Bisektionsweite",
    "Boorberg",
    "breakatwhitespace",
    "breaklines",
    "Bucketberechnung",
    "buildheap",
    "callhierarchy",
    "Cascadia",
    "chdir",
    "Chill'ax",
    "chmod",
    "choco",
    "chtigkeitsrelation",
    "CISC",
    "cmap",
    "commandline",
    "concat",
    "consectetur",
    "conv",
    "Cosinus",
    "COVAS",
    "creds",
    "ctornau",
    "Demultiplexer",
    "Digitalisierungsmanagement",
    "Dimensionsformel",
    "disp",
    "dkgreen",
    "dockerenv",
    "dotenv",
    "DPLL",
    "Druckbeh",
    "DSGVO",
    "dtype",
    "e",
    "egestas",
    "einfuege",
    "einfuegen",
    "einfuegepos",
    "elementigen",
    "elif",
    "elit",
    "Endlichkeitssatz",
    "Entleerungs",
    "Entleerungsdichtung",
    "Entleerungsöffnung",
    "Ersetzbarkeitstheorem",
    "etfs",
    "eval",
    "Exponentialzeit",
    "facilisis",
    "fbox",
    "felis",
    "ffmpeg",
    "ffnung",
    "Flamm",
    "fourcc",
    "FPDF",
    "Fusce",
    "Gbit",
    "Gefahrgutumf",
    "Gefahrgutumfüllpumpe",
    "Gerk",
    "getaktuelle",
    "getenv",
    "GGVS",
    "gitignored",
    "gitlab",
    "glfw",
    "GSPC",
    "Hashfunktion",
    "Hashfunktionen",
    "Hashprogramm",
    "Hashtabelle",
    "heapify",
    "heapq",
    "heapsort",
    "Heiz",
    "Heizöl",
    "higen",
    "hinzert",
    "hmac",
    "hoehe",
    "Horath",
    "ical",
    "IGMP",
    "IMREAD",
    "imshow",
    "imwrite",
    "inorder",
    "Instandsetzungsdienst",
    "Instandsetzungsnachweis",
    "Internetwork",
    "Intset",
    "isempty",
    "IWOTH",
    "K",
    "keras",
    "keywordstyle",
    "Konnektivität",
    "Korrektheitsproblem",
    "Künzer",
    "l",
    "L'Hospital",
    "latexmk",
    "Leckage",
    "lefttree",
    "lerhitzer",
    "llpumpe",
    "loesche",
    "loeschen",
    "loeschpos",
    "Logisim",
    "lualatex",
    "Lutterstra",
    "Lutterstraße",
    "LWJGL",
    "lxml",
    "M",
    "Mächtigkeitsrelation",
    "maxheap",
    "Mbit",
    "mcolors",
    "mechanisierbar",
    "Merscheid",
    "mkdir",
    "mmern",
    "mnist",
    "moderncv",
    "Morbach",
    "Morgansche",
    "Multicast",
    "mutiple",
    "mydb",
    "myfile",
    "myfunctions",
    "mylist",
    "naechstes",
    "nexnormalform",
    "Nisius",
    "nlargest",
    "nltk",
    "nonlocal",
    "nopuch",
    "numberstyle",
    "numpy",
    "nzer",
    "oauthlib",
    "oldstyle",
    "Ölerhitzer",
    "openpyxl",
    "Optimalit",
    "Optimalitätskriterien",
    "padx",
    "Petry",
    "planez",
    "Ponens",
    "postgres",
    "Pr",
    "Pränexnormalform",
    "prefs",
    "preorder",
    "Pressluftatmer",
    "Primstal",
    "prototxt",
    "pruefung",
    "pyautogui",
    "pygame",
    "pygit",
    "pyplot",
    "pytesseract",
    "Querschnittsfläche",
    "R",
    "radiogroup",
    "Rautensymbol",
    "relx",
    "repos",
    "righttree",
    "Rogowski",
    "RRULE",
    "Rüstwagen",
    "Schwer",
    "Schweröl",
    "Screencast",
    "sebas",
    "Segoe",
    "selbsterhitzungsf",
    "selbsterhitzungsfähigen",
    "sents",
    "Shiftet",
    "shiftleft",
    "shiftright",
    "skel",
    "sklearn",
    "Sortierverfahren",
    "sowas",
    "spacy",
    "Spreizer",
    "Spreizers",
    "St",
    "stelungssysteme",
    "Stützkrümmern",
    "stwagen",
    "subdirs",
    "surjektiv",
    "tabsize",
    "Tdife",
    "teilige",
    "teiligen",
    "Tesseract",
    "textasteriskcentered",
    "textbullet",
    "textdegree",
    "textless",
    "textunderscore",
    "tfds",
    "theia",
    "tikz",
    "titlespacing",
    "tlmgr",
    "Topologien",
    "Tragkraftspritzenfahrzeug",
    "Trauerkarten",
    "tskriterien",
    "tzkr",
    "tzwirkung",
    "uavu",
    "Ueberschrift",
    "ueberschriften",
    "Umf",
    "Umfüllpumpe",
    "umung",
    "umungszahl",
    "unendl",
    "Unicast",
    "uppy",
    "Ver",
    "Verästelungssysteme",
    "Versch",
    "Verschäumung",
    "Verschäumungszahl",
    "verunfallten",
    "Verzögerungsrate",
    "vorgaenger",
    "Vorlesungsfolien",
    "Vorlesungsvideos",
    "WANs",
    "Wasseransaugung",
    "xelatex",
    "yfinance",
    "yoff",
    "zaehle",
    "zeilenhoehe",
    "Zerlegungsformel",
    "Zielbucket",
    "Ziemski",
    "Zumischer"
  ],
  "git.autofetch": true,
  "kite.showWelcomeNotificationOnStartup": false,
  "editor.tabSize": 2,
  "editor.suggestSelection": "first",
  "editor.fontFamily": "Fira Code",
  "editor.fontLigatures": true,
  "editor.fontSize": 14,
  "debug.console.fontFamily": "Fira Code",
  "terminal.integrated.fontFamily": "Fira Code",
  "editor.codeLens": true,
  "editor.renderControlCharacters": true,
  "editor.renderWhitespace": "trailing",
  "editor.folding": true,
  "editor.wordWrap": "on",
  "git.enableSmartCommit": true,
  "explorer.confirmDragAndDrop": false,
  "files.trimTrailingWhitespace": true,
  "json.maxItemsComputed": 100000,
  "[python]": {
    "editor.defaultFormatter": "ms-python.python"
  },
  "[latex]": {
    "editor.formatOnPaste": false,
    "editor.suggestSelection": "recentlyUsedByPrefix"
  },
  "[json,jsonc]": {
    "editor.defaultFormatter": "vscode.json-language-features"
  },
  "latex-workshop.latex.watch.delay": 1000,
  "latex-workshop.latex.autoBuild.run": "never",
  "latex-workshop.view.pdf.viewer": "tab",
  "latex-workshop.latex.outDir": "./out",
  "latex-workshop.synctex.afterBuild.enabled": true,
  "clock.format": "HH:MM",
  "clock.active": true,
  "clock.alignment": "Right",
  "clock.iconName": "clock",
  "latex-workshop.latex.autoClean.run": "onBuilt",
  "telemetry.telemetryLevel": "off",
  "terminal.integrated.letterSpacing": 0,
  "maven.terminal.useJavaHome": true,
  "java.semanticHighlighting.enabled": true,
  "java.format.enabled": true,
  "update.showReleaseNotes": false,
  "projectManager.git.baseFolders": [
    "C:/Users/Sebastian/PycharmProjects",
    "C:/Users/Sebastian/dev",
    "C:/Users/sebi/PycharmProjects",
    "C:/Users/sebi/dev"
  ],
  "diffEditor.ignoreTrimWhitespace": false,
  "diffEditor.codeLens": true,
  "diffEditor.renderSideBySide": false,
  "git.confirmSync": false,
  "prettier.singleQuote": true,
  "editor.formatOnSave": true,
  "codesnap.showWindowControls": false,
  "codesnap.showLineNumbers": true,
  "codesnap.transparentBackground": true,
  "editor.columnSelection": false,
  "explorer.confirmDelete": false,
  "editor.cursorBlinking": "expand",
  "java.project.importOnFirstTimeStartup": "automatic",
  "files.exclude": {
    "**/*.class": true,
    "**/*.git": true
  },
  "[java]": {
    "editor.defaultFormatter": "redhat.java"
  },
  "java.configuration.runtimes": [
    {
      "name": "JavaSE-20",
      "path": "C:/Program Files/OpenJDK/jdk-20.0.2"
    }
  ],
  "workbench.settings.openDefaultKeybindings": true,
  "workbench.startupEditor": "newUntitledFile",
  "workbench.enableExperiments": false,
  "workbench.list.smoothScrolling": true,
  "editor.largeFileOptimizations": false,
  "java.codeGeneration.useBlocks": true,
  "java.configuration.maven.globalSettings": "C:/ProgramData/chocolatey/lib/maven/apache-maven-3.9.0/conf",
  "projectManager.any.baseFolders": [
    "C:/Users/sebi/dev",
    "C:/Users/sebi/Hochschule Trier",
    "C:/Users/sebi/Feuerwehr"
  ],
  "python.languageServer": "Jedi",
  "objectpascal.delphiInstallationPath": "C:/Program Files (x86)/Embarcadero/Studio/20.0/",
  "workbench.editor.untitled.hint": "hidden",
  "redhat.telemetry.enabled": false,
  "emmet.triggerExpansionOnTab": true,
  "latex-workshop.latex.tools": [
    {
      "name": "latexmk",
      "tools": [
        "latexmk"
      ],
      "command": "latexmk"
    },
    {
      "name": "latexmk",
      "command": "latexmk",
      "args": [
        "-synctex=1",
        "-interaction=nonstopmode",
        "-file-line-error",
        "-pdf",
        "-outdir=%OUTDIR%",
        "%DOC%"
      ],
      "env": {
        "TEXMFHOME": "C:/texlive/2023"
      }
    }
  ],
  "editor.minimap.maxColumn": 500,
  "prettier.printWidth": 120,
  "yaml.format.printWidth": 120,
  "tabnine.experimentalAutoImports": true,
  "snyk.yesWelcomeNotification": false,
  "latex-workshop.latexindent.path": "C:/texlive/2023/bin/win32/latexindent.exe",
  "gitlens.advanced.messages": {
    "suppressImproperWorkspaceCasingWarning": true
  },
  "window.zoomLevel": 1,
  "[jsonc]": {
    "editor.defaultFormatter": "vscode.json-language-features"
  },
  "latex-workshop.intellisense.citation.backend": "biblatex",
  "editor.inlineSuggest.enabled": true,
  "github.copilot.enable": {
    "*": true,
    "yaml": false,
    "plaintext": true,
    "markdown": false
  },
  "workbench.colorTheme": "Tomorrow Night Blue",
  "snyk.advanced.cliPath": "C:/Users/sebi/AppData/Local/snyk-ls/snyk-win.exe",
  "python.experiments.optInto": [
    "pythonSurveyNotification"
  ],
  "liveServer.settings.donotShowInfoMsg": true,
  "[dockerfile]": {
    "editor.defaultFormatter": "ms-azuretools.vscode-docker"
  },
  "security.workspace.trust.untrustedFiles": "open",
  "autoDocstring.docstringFormat": "sphinx",
  "snyk.trustedFolders": [
    "c:/Users/sebi/dev/face-recognition",
    "c:/Users/sebi/Feuerwehr/Jugendfeuerwehr/fragenkatalog-truppmann",
    "c:/Users/sebi/dev/zelda-clone",
    "c:/Users/sebi/dev/interactive-web-visualizations",
    "c:/Users/sebi/dev/titanic_survival_simulation/data",
    "c:/Users/sebi/Feuerwehr/Vorstandssitzungen/2022/0706",
    "c:/Users/sebi/dev/automate-ssh-processes-python",
    "c:/Users/sebi/dev/startup-automation",
    "c:/Users/sebi/dev/bachelorarbeit/LaTeX",
    "c:/Users/sebi/Bewerbungsunterlagen/anschreiben/Elektriker",
    "c:/Users/sebi/Berufsschule/Fachinformatiker/notizen-berufsschule/1.-Ausbildungsjahr/Elektrotechnische Grundlagen/Arbeitsauftrag elektrischer Strom",
    "c:/Users/sebi/Berufsschule/Fachinformatiker/mindmap",
    "c:/Users/sebi/dev/speech-recognition",
    "c:/Users/sebi/dev/studienarbeit/LaTeX",
    "c:/Users/sebi/dev/whois-domain-lookup-tool",
    "c:/Users/sebi/eclipse-workspace/LWJGL 3 Game",
    "c:/Users/sebi/Feuerwehr/Vorstandssitzungen/2022/0712",
    "c:/Users/sebi/dev/recursion/src",
    "c:/Users/sebi/dev/prove-to-equation",
    "c:/Users/sebi/dev/progress-bars",
    "c:/Users/sebi/dev/latex-project-automation",
    "c:/Users/sebi/Berufsschule/Fachinformatiker/wochenberichte/2022/KW 1",
    "c:/Users/sebi/Berufsschule/Fachinformatiker/notizen-berufsschule/1.-Ausbildungsjahr/BuINF/Zusammenfassung Network Essentials",
    "c:/Users/sebi/Berufsschule/Fachinformatiker/notizen-berufsschule/1.-Ausbildungsjahr/Elektrotechnische Grundlagen/praesentation-einheitenvorsaetze",
    "c:/Users/sebi/dev/mandelBuld 3D fractal",
    "c:/Users/sebi/dev/text-recognition",
    "c:/Users/sebi/Bewerbungsunterlagen/anschreiben/kein Empfänger",
    "c:/Users/sebi"
  ],
  "[json]": {
    "editor.defaultFormatter": "esbenp.prettier-vscode"
  },
  "editor.accessibilitySupport": "off",
  "[dart]": {
    "editor.formatOnSave": true,
    "editor.formatOnType": true,
    "editor.rulers": [
      80
    ],
    "editor.selectionHighlight": false,
    "editor.suggest.snippetsPreventQuickSuggestions": false,
    "editor.suggestSelection": "first",
    "editor.tabCompletion": "onlySnippets",
    "editor.wordBasedSuggestions": false
  }
}